[gd_scene load_steps=2 format=2]

[ext_resource path="res://gs_windowscaler/window_scaler.gd" type="Script" id=1]

[node name="WindowScaler" type="Node"]
script = ExtResource( 1 )

[node name="ViewLabel" type="Label" parent="."]
anchor_left = 1.0
anchor_top = 1.0
anchor_right = 1.0
anchor_bottom = 1.0
margin_left = -40.0
margin_top = -14.0
